{
  "project_info": {
    "project_number": "254087177891",
    "firebase_url": "https://happy-180fc.firebaseio.com",
    "project_id": "happy-180fc",
    "storage_bucket": "happy-180fc.appspot.com"
  },
  "client": [
    {
      "client_info": {
        "mobilesdk_app_id": "1:254087177891:android:3ef27f1534908efb",
        "android_client_info": {
          "package_name": "com.happy.myflutterapp"
        }
      },
      "oauth_client": [
        {
          "client_id": "254087177891-4g9ma71moikqpu8h04mn87hi2fdne321.apps.googleusercontent.com",
          "client_type": 1,
          "android_info": {
            "package_name": "com.happy.myflutterapp",
            "certificate_hash": "d50af99f86df3e3eb1b45d9fdfe0a16254b4f298"
          }
        },
        {
          "client_id": "254087177891-kp2qpkrebknv877rm1pjbdqvq415tmm0.apps.googleusercontent.com",
          "client_type": 3
        }
      ],
      "api_key": [
        {
          "current_key": "AIzaSyDGWw4NQZubZQfh9MRs1RIpyp9I5LEdqt8"
        }
      ],
      "services": {
        "analytics_service": {
          "status": 1
        },
        "appinvite_service": {
          "status": 2,
          "other_platform_oauth_client": [
            {
              "client_id": "254087177891-kp2qpkrebknv877rm1pjbdqvq415tmm0.apps.googleusercontent.com",
              "client_type": 3
            }
          ]
        },
        "ads_service": {
          "status": 2
        }
      }
    }
  ],
  "configuration_version": "1"
}